{
    "version": {
        "major": 4,
        "minor": 4
     },

    "factory": {"factorytable": [22, 0, 2, 32, 23, 0, 2, 96, 24, 0, 2, 192, 25, 0, 2, 240, 69, 1, 130, 128, 0, 0, 0, 127, 0, 3, 12, 17, 20, 23, 25, 27, 28, 30, 31, 32, 33, 34, 35, 35, 37, 37, 38, 38, 39, 40, 40, 41, 41, 42, 42, 43, 43, 43, 44, 44, 44, 45, 45, 46, 46, 46, 46, 47, 47, 47, 48, 48, 48, 48, 49, 49, 49, 49, 50, 50, 50, 50, 50, 51, 51, 51, 51, 52, 52, 52, 52, 52, 52, 53, 53, 53, 53, 53, 53, 54, 54, 54, 54, 54, 54, 55, 55, 55, 55, 55, 55, 55, 56, 56, 56, 56, 56, 56, 56, 56, 57, 57, 57, 57, 57, 57, 57, 57, 58, 58, 58, 58, 58, 58, 58, 58, 58, 59, 59, 59, 59, 59, 59, 59, 59, 59, 59, 60, 60, 60, 60, 60, 60, 60, 60, 60, 60, 89, 2, 7, 73, 127, 2, 0, 90, 2, 7, 128, 0, 0, 0, 91, 2, 7, 1, 71, 254, 255, 92, 2, 7, 77, 0, 0, 0, 93, 2, 7, 60, 0, 0, 0, 94, 2, 7, 138, 255, 255, 255, 195, 2, 130, 128, 0, 0, 0, 127, 0, 0, 0, 3, 12, 17, 20, 23, 25, 27, 28, 30, 31, 32, 33, 34, 35, 35, 37, 37, 38, 38, 39, 40, 40, 41, 41, 42, 42, 43, 43, 43, 44, 44, 44, 45, 45, 46, 46, 46, 46, 47, 47, 47, 48, 48, 48, 48, 49, 49, 49, 49, 50, 50, 50, 50, 50, 51, 51, 51, 51, 52, 52, 52, 52, 52, 52, 53, 53, 53, 53, 53, 53, 54, 54, 54, 54, 54, 54, 55, 55, 55, 55, 55, 55, 55, 56, 56, 56, 56, 56, 56, 56, 56, 57, 57, 57, 57, 57, 57, 57, 57, 58, 58, 58, 58, 58, 58, 58, 58, 58, 59, 59, 59, 59, 59, 59, 59, 59, 59, 59, 60, 60, 60, 60, 60, 60, 60, 60, 33, 3, 132, 4, 0, 0, 0, 3, 0, 66, 1, 0, 1, 0, 1, 120, 1, 37, 3, 132, 9, 0, 0, 0, 8, 0, 230, 1, 181, 128, 49, 128, 66, 128, 153, 1, 87, 128, 39, 128, 14, 129, 53, 2, 177, 4, 4, 64, 0, 178, 4, 4, 65, 0, 179, 4, 4, 65, 0, 180, 4, 4, 63, 0, 234, 253, 4, 4, 0, 235, 253, 4, 4, 0]},

    "ae": {
        "compval": "0x60",
        "maxgain": 32,
        "maxgain_normal_light": 8,
        "maxzonethresh": "0xc000",
        "minzonethresh": 0,
        "maxzoneweightadj": 15,
        "manual_gain": 2,
        "integration_time": 200,
        "power_line_freq": 60,
        "zonalselect": -1,
        "zonaltrigger": 0,
        "pause": 0
     },
     "lookup": {
        "saturation": [
            [1   , 100],
            [2   , 100],
            [4   , 100],
            [8   , 100],
            [20  ,  80],
            [32  ,  70]
        ],
        "sharp": [
            [1   , 90],
            [2   , 88],
            [4   , 82],
            [8   , 76],
            [20  , 44],
            [32  , 30]
        ],
        "spatialnoisereduction": [
            [1   , 10],
            [2   , 16],
            [4   , 24],
            [8   , 34],
            [20  , 44],
            [32  , 60]
        ],
        "demosaic": [
            [1   ,  0],
            [2   ,  0],
            [4   ,  0],
            [8   ,  1],
            [20  ,  2],
            [32  ,  4]
        ]
     },
    "localtonemapping": {
        "minlocaltonemapping"       : "0x0",
        "maxlocaltonemapping"       : "0x50",
        "asymmetrytablemode"  : 1,
        "adaptive_enable" : 1,
        "localtonemapping_strength" : 255,
        "enable"          : 1,
        "slope_min"   : "0x40",
        "slope_max"   : "0x60",
        "variance_intensity" : 9,
        "variance_space"     : 3,
        "black_level"     : "0x4",
        "white_level"     : "0xf00"
    },
    "color": {
        "adaptccmen": 0
     },
     "awb": {
        "target": 6500,
        "zone_weight": [
          0,  1,  1,  1,  1,  1,  1,  1,  1,  1,  1,  1,  1,  1,  0,  
          1,  4,  4,  4,  4,  4,  4,  4,  4,  4,  4,  4,  4,  4,  1,  
          1,  4,  4,  4,  4,  4,  4,  4,  4,  4,  4,  4,  4,  4,  1,  
          1,  4,  4,  4,  4,  4,  4,  4,  4,  4,  4,  4,  4,  4,  1,  
          1,  4,  4,  4,  4,  4,  4,  4,  4,  4,  4,  4,  4,  4,  1,  
          1,  4,  4,  4,  4,  4,  4,  4,  4,  4,  4,  4,  4,  4,  1,  
          1,  4,  4,  4,  4,  4,  4,  4,  4,  4,  4,  4,  4,  4,  1,  
          1,  4,  4,  4,  4,  4,  4,  4,  4,  4,  4,  4,  4,  4,  1,  
          1,  4,  4,  4,  4,  4,  4,  4,  4,  4,  4,  4,  4,  4,  1,  
          1,  4,  4,  4,  4,  4,  4,  4,  4,  4,  4,  4,  4,  4,  1,  
          1,  4,  4,  4,  4,  4,  4,  4,  4,  4,  4,  4,  4,  4,  1,  
          1,  4,  4,  4,  4,  4,  4,  4,  4,  4,  4,  4,  4,  4,  1,  
          1,  4,  4,  4,  4,  4,  4,  4,  4,  4,  4,  4,  4,  4,  1,  
          1,  4,  4,  4,  4,  4,  4,  4,  4,  4,  4,  4,  4,  4,  1,  
          0,  1,  1,  1,  1,  1,  1,  1,  1,  1,  1,  1,  1,  1,  0],
       "pause": 0
     },
     "demosaic": {
        "rggbstart"  : 3,
        "vhSlope"    : 192,
        "aaSlope"    : 216,
        "vaSlope"    : 200,
        "uuSlope"    : 152,
        "satSlope"   : 93,
        "vhThresh"   : 80,
        "aaThresh"   : 64,
        "vaThresh"   : 64,
        "uuThresh"   : 120,
        "satThresh"  : 369,
        "vhOfst"     : 2048,
        "aaOfst"     : 2048,
        "vaOfst"     : 2048,
        "uuOfst"     : 0,
        "satOfst"    : 0,
        "sharpD"     : 0,
        "sharpUD"    : 0,
        "lumThresh"  : 150,
        "npOfst"     : 0,
        "dmscCfg"    : 0,
        "acThresh"   : 435,
        "acSlope"    : 207,
        "acOfst"     : 0,
        "fcSlope"    : 0,
        "sharpness_strength": 50,
        "target_saturation_strength"     : 100,
        "enable"     : 1
    },
    "noise": {
        "init": 1,
        "thresh_1h0h": "0xe00",
        "thresh_1v": "0x0e",
        "thresh_4h": "0x20",
        "thresh_4v": "0x20",
        "strength_1": "0xaa",
        "strength_4": "0xf0",
        "spatialnoisereduction_mode": 4,
        "noise_strength": 0,
        "reduction_enable": 1,
        "shading_center_x" : "0x03c0",
        "intensity_config" : 4,
        "shading_enable"   : 0,
        "intensity_filter" : 1,
        "filter_select"    : 0,
        "short_ratio"      : "0x20",
        "long_ratio"       : 4
    },
    "greeneq":{
        "dpthresh" : "0x10",
        "dpslope" : "0x80",
        "line_thresh" : "0x150",
        "strength" : "0x0",
        "threshold" : "0x400",
        "slope"     :"0x20",
        "sensitivity" : "0x80",
        "enable" : 1,
        "dp_enable" : 1
    },
    "roi": {
        "xstart": 3,
        "ystart": 3,
        "width":  9,
        "height": 9
    },
    "gamma": {
        "enable" : 1
    },
    "adaptive": {
        "saturation_enable": 1,
        "sharpness_enable": 1,
        "autoexp_enable": 1,
        "autowb_enable": 1,
        "pause": 0
    },
    "lens_shading": {
        "enable": 0
    }
}
