{
    "version": {
        "major": 4,
        "minor": 4
     },

    "factory": {"factorytable": [22, 0, 2, 32, 23, 0, 2, 96, 24, 0, 2, 192, 25, 0, 2, 240, 69, 1, 130, 128, 0, 0, 0, 127, 0, 3, 12, 16, 19, 22, 24, 26, 27, 29, 30, 31, 32, 33, 34, 34, 36, 36, 37, 38, 38, 39, 39, 40, 40, 41, 41, 42, 42, 42, 43, 43, 43, 44, 44, 44, 45, 45, 45, 46, 46, 46, 47, 47, 47, 47, 48, 48, 48, 48, 49, 49, 49, 49, 49, 50, 50, 50, 50, 50, 51, 51, 51, 51, 51, 52, 52, 52, 52, 52, 52, 53, 53, 53, 53, 53, 53, 54, 54, 54, 54, 54, 54, 54, 55, 55, 55, 55, 55, 55, 55, 55, 56, 56, 56, 56, 56, 56, 56, 56, 57, 57, 57, 57, 57, 57, 57, 57, 57, 58, 58, 58, 58, 58, 58, 58, 58, 58, 58, 59, 59, 59, 59, 59, 59, 59, 59, 59, 59, 89, 2, 7, 144, 127, 2, 0, 90, 2, 7, 128, 0, 0, 0, 91, 2, 7, 175, 75, 254, 255, 92, 2, 7, 118, 0, 0, 0, 93, 2, 7, 16, 0, 0, 0, 94, 2, 7, 134, 255, 255, 255, 195, 2, 130, 128, 0, 0, 0, 127, 0, 0, 0, 3, 12, 16, 19, 22, 24, 26, 27, 29, 30, 31, 32, 33, 34, 34, 36, 36, 37, 38, 38, 39, 39, 40, 40, 41, 41, 42, 42, 42, 43, 43, 43, 44, 44, 44, 45, 45, 45, 46, 46, 46, 47, 47, 47, 47, 48, 48, 48, 48, 49, 49, 49, 49, 49, 50, 50, 50, 50, 50, 51, 51, 51, 51, 51, 52, 52, 52, 52, 52, 52, 53, 53, 53, 53, 53, 53, 54, 54, 54, 54, 54, 54, 54, 55, 55, 55, 55, 55, 55, 55, 55, 56, 56, 56, 56, 56, 56, 56, 56, 57, 57, 57, 57, 57, 57, 57, 57, 57, 58, 58, 58, 58, 58, 58, 58, 58, 58, 58, 59, 59, 59, 59, 59, 59, 59, 59, 33, 3, 132, 4, 0, 0, 0, 3, 0, 100, 1, 0, 1, 0, 1, 227, 1, 37, 3, 132, 9, 0, 0, 0, 8, 0, 226, 1, 206, 128, 20, 128, 58, 128, 148, 1, 90, 128, 7, 128, 29, 129, 36, 2, 177, 4, 4, 66, 0, 178, 4, 4, 66, 0, 179, 4, 4, 66, 0, 180, 4, 4, 66, 0, 234, 253, 4, 4, 0, 235, 253, 4, 4, 0]},

    "ae": {
        "compval": "0x58",
        "maxgain": 32,
        "maxgain_normal_light": 16,
        "manual_gain": 2,
        "integration_time": 200,
        "power_line_freq": 60,
        "zonalselect": -1,
        "zonaltrigger": 0,
        "pause": 0
     },
     "lookup": {
        "sharp": [
            [1   , 160],
            [2   , 152],
            [4   , 144],
            [8   , 136],
            [16  , 128],
            [32  , 112]
        ],
        "spatialnoisereduction": [
            [1   ,  0],
            [2   ,  2],
            [4   , 12],
            [8   , 38],
            [16  , 38],
            [32  , 50]
        ],
        "demosaic": [
            [1   ,  0],
            [2   ,  0],
            [4   ,  1],
            [8   ,  2],
            [16  ,  4],
            [32  ,  8]
        ]
     },
    "localtonemapping": {
        "minlocaltonemapping"       : "0x04",
        "maxlocaltonemapping"       : "0x58",
        "asymmetrytablemode"  : 1,
        "adaptive_enable" : 1,
        "localtonemapping_strength" : 255,
        "enable"          : 1,
        "slope_min"   : "0x40",
        "slope_max"   : "0x60",
        "variance_intensity" : 9,
        "variance_space"     : 3,
        "black_level"     : "0x1",
        "white_level"     : "0xc00"
    },
    "color": {
        "adaptccmen": 0
     },
     "awb": {
        "target": 6500,
        "zone_weight": [
          0,  1,  1,  1,  1,  1,  1,  1,  1,  1,  1,  1,  1,  1,  0,  
          1,  4,  4,  4,  4,  4,  4,  4,  4,  4,  4,  4,  4,  4,  1,  
          1,  4,  4,  4,  4,  4,  4,  4,  4,  4,  4,  4,  4,  4,  1,  
          1,  4,  4,  4,  4,  4,  4,  4,  4,  4,  4,  4,  4,  4,  1,  
          1,  4,  4,  4,  4,  4,  4,  4,  4,  4,  4,  4,  4,  4,  1,  
          1,  4,  4,  4,  4,  4,  4,  4,  4,  4,  4,  4,  4,  4,  1,  
          1,  4,  4,  4,  4,  4,  4,  4,  4,  4,  4,  4,  4,  4,  1,  
          1,  4,  4,  4,  4,  4,  4,  4,  4,  4,  4,  4,  4,  4,  1,  
          1,  4,  4,  4,  4,  4,  4,  4,  4,  4,  4,  4,  4,  4,  1,  
          1,  4,  4,  4,  4,  4,  4,  4,  4,  4,  4,  4,  4,  4,  1,  
          1,  4,  4,  4,  4,  4,  4,  4,  4,  4,  4,  4,  4,  4,  1,  
          1,  4,  4,  4,  4,  4,  4,  4,  4,  4,  4,  4,  4,  4,  1,  
          1,  4,  4,  4,  4,  4,  4,  4,  4,  4,  4,  4,  4,  4,  1,  
          1,  4,  4,  4,  4,  4,  4,  4,  4,  4,  4,  4,  4,  4,  1,  
          0,  1,  1,  1,  1,  1,  1,  1,  1,  1,  1,  1,  1,  1,  0],
        "pause": 0
     },
     "demosaic": {
        "rggbstart"  : 3,
        "vhSlope"    : 208,
        "aaSlope"    : 224,
        "vaSlope"    : 216,
        "uuSlope"    : 140,
        "satSlope"   : 93,
        "vhThresh"   : 48,
        "aaThresh"   : 48,
        "vaThresh"   : 48,
        "uuThresh"   : 120,
        "satThresh"  : 369,
        "vhOfst"     : 2048,
        "aaOfst"     : 2048,
        "vaOfst"     : 2048,
        "uuOfst"     : 0,
        "satOfst"    : 0,
        "sharpD"     : 0,
        "sharpUD"    : 0,
        "lumThresh"  : 150,
        "npOfst"     : 0,
        "dmscCfg"    : 0,
        "acThresh"   : 435,
        "acSlope"    : 207,
        "acOfst"     : 0,
        "fcSlope"    : 0,
        "sharpness_strength": 50,
        "target_saturation_strength"     : 100,
        "enable"     : 1
    },
    "noise": {
        "init": 1,
        "thresh_1h0h": "0x200",
        "thresh_1v": "0x02",
        "thresh_4h": "0x10",
        "thresh_4v": "0x10",
        "strength_1": "0xaa",
        "strength_4": "0xff",
        "spatialnoisereduction_mode": 4,
        "noise_strength": 0,
        "reduction_enable": 1,
        "shading_center_x" : "0x03c0",
        "intensity_config" : 2,
        "shading_enable"   : 0,
        "intensity_filter" : 1,
        "filter_select"    : 0,
        "short_ratio"      : "0x20",
        "long_ratio"       : 4
    },
    "greeneq":{
        "dpthresh" : "0x18",
        "dpslope" : "0x280",
        "line_thresh" : "0x150",
        "strength" : "0x0",
        "threshold" : "0x400",
        "slope"     :"0x20",
        "sensitivity" : "0x80",
        "enable" : 1,
        "dp_enable" : 1
    },
    "gamma": {
        "enable" : 1,
        "value": 220
    },
    "roi": {
        "aetable": [
            0,  0,  0,  0,  0,  5, 15, 15, 15,  5,  0,  0,  0,  0,  0,
            0,  0,  0,  0,  5, 15, 15, 15, 15, 15,  5,  0,  0,  0,  0,
            0,  0,  0,  0,  5, 15, 15, 15, 15, 15,  5,  0,  0,  0,  0,
            0,  0,  0,  0, 15, 15, 15, 15, 15, 15, 15,  0,  0,  0,  0,
            0,  0,  0,  5, 15, 15, 15, 15, 15, 15, 15,  5,  0,  0,  0,
            0,  0,  0, 15, 15, 15, 15, 15, 15, 15, 15, 15,  0,  0,  0,
            0,  0,  0, 15, 15, 15, 15, 15, 15, 15, 15, 15,  0,  0,  0,
            0,  0,  0, 15, 15, 15, 15, 15, 15, 15, 15, 15,  0,  0,  0,
            0,  0,  0, 15, 15, 15, 15, 15, 15, 15, 15, 15,  0,  0,  0,
            0,  0,  0, 15, 15, 15, 15, 15, 15, 15, 15, 15,  0,  0,  0,
            0,  0,  0,  5, 15, 15, 15, 15, 15, 15, 15,  5,  0,  0,  0,
            0,  0,  0,  0, 15, 15, 15, 15, 15, 15, 15,  0,  0,  0,  0,
            0,  0,  0,  0,  5, 15, 15, 15, 15, 15,  5,  0,  0,  0,  0,
            0,  0,  0,  0,  5, 15, 15, 15, 15, 15,  5,  0,  0,  0,  0,
            0,  0,  0,  0,  0,  5, 15, 15, 15,  5,  0,  0,  0,  0,  0
        ]
    },
    "adaptive": {
        "saturation_enable": 1,
        "sharpness_enable": 1,
        "autoexp_enable": 1,
        "autowb_enable": 1,
        "pause": 0
    },
    "lens_shading": {
        "enable": 0
    }
}
