{
    "version": {
        "major": 4,
        "minor": 3
     },
     
    "factory": {"factorytable": [22, 0, 2, 32, 23, 0, 2, 96, 24, 0, 2, 192, 25, 0, 2, 240, 69, 1, 130, 128, 0, 0, 0, 127, 0, 3, 12, 17, 21, 23, 26, 27, 29, 30, 31, 33, 34, 35, 35, 36, 37, 38, 38, 39, 39, 40, 41, 41, 42, 42, 42, 43, 43, 44, 44, 44, 45, 45, 46, 46, 46, 46, 47, 47, 47, 48, 48, 48, 48, 49, 49, 49, 49, 50, 50, 50, 50, 51, 51, 51, 51, 51, 52, 52, 52, 52, 52, 53, 53, 53, 53, 53, 53, 54, 54, 54, 54, 54, 54, 55, 55, 55, 55, 55, 55, 56, 56, 56, 56, 56, 56, 56, 56, 57, 57, 57, 57, 57, 57, 57, 57, 58, 58, 58, 58, 58, 58, 58, 58, 59, 59, 59, 59, 59, 59, 59, 59, 59, 59, 60, 60, 60, 60, 60, 60, 60, 60, 60, 60, 60, 60, 60, 60, 89, 2, 7, 86, 226, 2, 0, 90, 2, 7, 128, 0, 0, 0, 91, 2, 7, 64, 3, 254, 255, 92, 2, 7, 242, 255, 255, 255, 93, 2, 7, 220, 0, 0, 0, 94, 2, 7, 50, 0, 0, 0, 195, 2, 130, 128, 0, 0, 0, 127, 0, 0, 0, 0, 0, 0, 3, 12, 17, 21, 23, 26, 27, 29, 30, 31, 33, 34, 35, 35, 36, 37, 38, 38, 39, 39, 40, 41, 41, 42, 42, 42, 43, 43, 44, 44, 44, 45, 45, 46, 46, 46, 46, 47, 47, 47, 48, 48, 48, 48, 49, 49, 49, 49, 50, 50, 50, 50, 51, 51, 51, 51, 51, 52, 52, 52, 52, 52, 53, 53, 53, 53, 53, 53, 54, 54, 54, 54, 54, 54, 55, 55, 55, 55, 55, 55, 56, 56, 56, 56, 56, 56, 56, 56, 57, 57, 57, 57, 57, 57, 57, 57, 58, 58, 58, 58, 58, 58, 58, 58, 59, 59, 59, 59, 59, 59, 59, 59, 59, 59, 60, 60, 60, 60, 60, 60, 60, 60, 60, 33, 3, 132, 4, 0, 0, 0, 3, 0, 23, 1, 0, 1, 0, 1, 204, 1, 37, 3, 132, 9, 0, 0, 0, 8, 0, 158, 1, 102, 128, 56, 128, 60, 128, 96, 1, 36, 128, 8, 0, 200, 128, 192, 1, 177, 4, 4, 64, 0, 178, 4, 4, 64, 0, 179, 4, 4, 64, 0, 180, 4, 4, 64, 0, 234, 253, 4, 4, 0, 235, 253, 4, 3, 0]},

    "ae": {
        "compval": "0x60",
        "maxgain": 32,
        "manual_gain": 2,
        "integration_time": 200,
        "maxgain_normal_light": 22,
        "power_line_freq": 60,
        "zonalselect": -1,
        "zonaltrigger": 0,
        "pause": 0
     },
     "lookup": {
        "sharp": [
            [1   , 96],
            [2   , 94],
            [4   , 90],
            [8   , 90],
            [16  ,  0],
            [20  ,  0]
        ],
        "spatialnoisereduction": [
            [1   ,  4],
            [2   ,  8],
            [4   ,  8],
            [8   , 16],
            [16  , 40],
            [32  , 52]
        ],
        "demosaic": [
            [1   ,  0],
            [2   ,  0],
            [4   ,  0],
            [8   ,  1],
            [16  ,  2],
            [32  ,  4]
        ]
     },
    "localtonemapping": {
        "minlocaltonemapping"       : "0x0",
        "maxlocaltonemapping"       : "0x0",
        "asymmetrytablemode"  : 1,
        "adaptive_enable" : 1,
        "localtonemapping_strength" : 255,
        "enable"          : 1,
        "slope_min"   : "0x40",
        "slope_max"   : "0x80",
        "variance_intensity" : 6,
        "variance_space"     : 2,
        "black_level"     : "0x4",
        "white_level"     : "0x3ff"
    },
    "color": {
        "adaptccmen": 0
     },
     "awb": {
        "target": 6500,
        "zone_weight": [
          0,  1,  1,  1,  1,  1,  1,  1,  1,  1,  1,  1,  1,  1,  0,  
          1,  4,  4,  4,  4,  4,  4,  4,  4,  4,  4,  4,  4,  4,  1,  
          1,  4,  4,  4,  4,  4,  4,  4,  4,  4,  4,  4,  4,  4,  1,  
          1,  4,  4,  4,  4,  4,  4,  4,  4,  4,  4,  4,  4,  4,  1,  
          1,  4,  4,  4,  4,  4,  4,  4,  4,  4,  4,  4,  4,  4,  1,  
          1,  4,  4,  4,  4,  4,  4,  4,  4,  4,  4,  4,  4,  4,  1,  
          1,  4,  4,  4,  4,  4,  4,  4,  4,  4,  4,  4,  4,  4,  1,  
          1,  4,  4,  4,  4,  4,  4,  4,  4,  4,  4,  4,  4,  4,  1,  
          1,  4,  4,  4,  4,  4,  4,  4,  4,  4,  4,  4,  4,  4,  1,  
          1,  4,  4,  4,  4,  4,  4,  4,  4,  4,  4,  4,  4,  4,  1,  
          1,  4,  4,  4,  4,  4,  4,  4,  4,  4,  4,  4,  4,  4,  1,  
          1,  4,  4,  4,  4,  4,  4,  4,  4,  4,  4,  4,  4,  4,  1,  
          1,  4,  4,  4,  4,  4,  4,  4,  4,  4,  4,  4,  4,  4,  1,  
          1,  4,  4,  4,  4,  4,  4,  4,  4,  4,  4,  4,  4,  4,  1,  
          0,  1,  1,  1,  1,  1,  1,  1,  1,  1,  1,  1,  1,  1,  0]  
     },
     "demosaic": {
        "rggbstart"  : 3,
        "vhSlope"    : 172,
        "aaSlope"    : 184,
        "vaSlope"    : 184,
        "uuSlope"    : 136,
        "satSlope"   : 93,
        "vhThresh"   : 72,
        "aaThresh"   : 64,
        "vaThresh"   : 64,
        "uuThresh"   : 120,
        "satThresh"  : 369,
        "vhOfst"     : 2048,
        "aaOfst"     : 2048,
        "vaOfst"     : 2048,
        "uuOfst"     : 0,
        "satOfst"    : 0,
        "sharpD"     : 0,
        "sharpUD"    : 0,
        "lumThresh"  : 150,
        "npOfst"     : 0,
        "dmscCfg"    : 0,
        "acThresh"   : 435,
        "acSlope"    : 207,
        "acOfst"     : 0,
        "fcSlope"    : 0,
        "sharpness_strength": 50,
        "target_saturation_strength"     : 100,
        "enable"     : 1
    },
    "noise": {
        "init": 1,
        "thresh_1h0h": "0x800",
        "thresh_1v": "0x08",
        "thresh_4h": "0x18",
        "thresh_4v": "0x18",
        "strength_1": "0xb0",
        "strength_4": "0xf0",
        "spatialnoisereduction_mode": 4,
        "noise_strength": 0,
        "reduction_enable": 1,
        "shading_center_x" : "0x03c0",
        "intensity_config" : 4,
        "shading_enable"   : 0,
        "intensity_filter" : 1,
        "filter_select"    : 0,
        "short_ratio"      : "0x20",
        "long_ratio"       : 4
    },
    "greeneq":{
        "dpthresh" : "0x80",
        "dpslope" : "0x20",
        "line_thresh" : "0x150",
        "strength" : "0x0",
        "threshold" : "0x400",
        "slope"     :"0x20",
        "sensitivity" : "0x80",
        "enable" : 1,
        "dp_enable" : 1
    },
    "gamma": {
        "enable" : 1,
        "value": 220
    },
    "roi": {
        "xstart": 3,
        "ystart": 3,
        "width":  9,
        "height": 9
    },
    "adaptive": {
        "saturation_enable": 1,
        "sharpness_enable": 1,
        "autoexp_enable": 1,
        "autowb_enable": 1,
        "pause": 0
    },
    "lens_shading": {
        "enable": 0
    }
}
